Lab 2b. Community - Ordination
…
# set seed for reproducible results
set.seed(42)

# get data
url <- "https://koalaverse.github.io/homlr/data/my_basket.csv"
my_basket <- readr::read_csv(url)
dim(my_basket)

## [1] 2000   42

my_basket

## # A tibble: 2,000 × 42
##    `7up` lasagna pepsi   yop red.wine cheese   bbq bulmers mayonnaise horlics
##    <dbl>   <dbl> <dbl> <dbl>    <dbl>  <dbl> <dbl>   <dbl>      <dbl>   <dbl>
##  1     0       0     0     0        0      0     0       0          0       0
##  2     0       0     0     0        0      0     0       0          0       0
##  3     0       0     0     0        0      0     0       0          0       0
##  4     0       0     0     2        1      0     0       0          0       0
##  5     0       0     0     0        0      0     0       2          0       0
##  6     0       0     0     0        0      0     0       0          0       0
##  7     1       1     0     0        0      0     1       0          0       0
##  8     0       0     0     0        0      0     0       0          0       0
##  9     0       1     0     0        0      0     0       0          0       0
## 10     0       0     0     0        0      0     0       0          0       2
## # … with 1,990 more rows, and 32 more variables: chicken.tikka <dbl>,
## #   milk <dbl>, mars <dbl>, coke <dbl>, lottery <dbl>, bread <dbl>,
## #   pizza <dbl>, sunny.delight <dbl>, ham <dbl>, lettuce <dbl>,
## #   kronenbourg <dbl>, leeks <dbl>, fanta <dbl>, tea <dbl>, whiskey <dbl>,
## #   peas <dbl>, newspaper <dbl>, muesli <dbl>, white.wine <dbl>, carrots <dbl>,
## #   spinach <dbl>, pate <dbl>, instant.coffee <dbl>, twix <dbl>,
## #   potatoes <dbl>, fosters <dbl>, soup <dbl>, toad.in.hole <dbl>, …
…
## 
##   The 'cran_repo' argument in shelf() was not set, so it will use
##   cran_repo = 'https://cran.r-project.org' by default.
## 
##   To avoid this message, set the 'cran_repo' argument to a CRAN
##   mirror URL (see https://cran.r-project.org/mirrors.html) or set
##   'quiet = TRUE'.

# vegetation and environment in lichen pastures from Vare et al (1995)
data("varespec") # species
data("varechem") # chemistry

varespec %>% tibble()

## # A tibble: 24 × 44
##    Callvulg Empenigr Rhodtome Vaccmyrt Vaccviti Pinusylv Descflex Betupube
##       <dbl>    <dbl>    <dbl>    <dbl>    <dbl>    <dbl>    <dbl>    <dbl>
##  1     0.55    11.1      0        0       17.8      0.07     0        0   
##  2     0.67     0.17     0        0.35    12.1      0.12     0        0   
##  3     0.1      1.55     0        0       13.5      0.25     0        0   
##  4     0       15.1      2.42     5.92    16.0      0        3.7      0   
##  5     0       12.7      0        0       23.7      0.03     0        0   
##  6     0        8.92     0        2.42    10.3      0.12     0.02     0   
##  7     4.73     5.12     1.55     6.05    12.4      0.1      0.78     0.02
##  8     4.47     7.33     0        2.15     4.33     0.1      0        0   
##  9     0        1.63     0.35    18.3      7.13     0.05     0.4      0   
## 10    24.1      1.9      0.07     0.22     5.3      0.12     0        0   
## # … with 14 more rows, and 36 more variables: Vacculig <dbl>, Diphcomp <dbl>,
## #   Dicrsp <dbl>, Dicrfusc <dbl>, Dicrpoly <dbl>, Hylosple <dbl>,
## #   Pleuschr <dbl>, Polypili <dbl>, Polyjuni <dbl>, Polycomm <dbl>,
## #   Pohlnuta <dbl>, Ptilcili <dbl>, Barbhatc <dbl>, Cladarbu <dbl>,
## #   Cladrang <dbl>, Cladstel <dbl>, Cladunci <dbl>, Cladcocc <dbl>,
## #   Cladcorn <dbl>, Cladgrac <dbl>, Cladfimb <dbl>, Cladcris <dbl>,
## #   Cladchlo <dbl>, Cladbotr <dbl>, Cladamau <dbl>, Cladsp <dbl>, …
…
