EDS 232: Lab 3. Reserve Design
…
# create prioritizr problem with only the data
p0 <- problem(pu_data, veg_data, cost_column = "cost")

# print empty problem,
# we can see that only the cost and feature data are defined
print(p0)

# calculate amount of each feature in each planning unit
abundance_data <- feature_abundances(p0)

# print abundance data
print(abundance_data)

# A tibble: 32 × 3
   feature       absolute_abundance relative_abundance
   <chr>                      <dbl>              <dbl>
 1 vegetation.1                16.0                  1
 2 vegetation.2                14.3                  1
 3 vegetation.3                10.4                  1
 4 vegetation.4                17.8                  1
 5 vegetation.5                13.0                  1
 6 vegetation.6                14.3                  1
 7 vegetation.7                20.0                  1
 8 vegetation.8                14.0                  1
 9 vegetation.9                18.0                  1
10 vegetation.10               20.0                  1
# … with 22 more rows
…
The abundance_data object contains three columns. The feature column contains the name of each feature (derived from names(veg_data)), the absolute_abundance column contains the total amount of each feature in all the planning units, and the relative_abundance column contains the total amount of each feature in the planning units expressed as a proportion of the total amount in the underlying raster data. Since all the raster cells containing vegetation overlap with the planning units, all of the values in the relative_abundance column are equal to one (meaning 100%). So the relative_abundance per feature is a measure of the ‘percent presence’ of that feature across all planning units (100% or 1 in the case of all these vegetation layers, which is not interesting), whereas absolute_abundance measures the total amount of that feature when the value for all planning units is added up. Now let’s add a new column with the feature abundances expressed in area units (i.e. km2).

# add new column with feature abundances in km^2
abundance_data$absolute_abundance_km2 <-
  (abundance_data$absolute_abundance * prod(res(veg_data))) %>%
  set_units(m^2) %>%
  set_units(km^2)

# print abundance data
print(abundance_data)

# A tibble: 32 × 4
   feature       absolute_abundance relative_abundan… absolute_abunda…
   <chr>                      <dbl>             <dbl>           [km^2]
 1 vegetation.1                16.0                 1             15.8
 2 vegetation.2                14.3                 1             14.1
 3 vegetation.3                10.4                 1             10.2
 4 vegetation.4                17.8                 1             17.6
 5 vegetation.5                13.0                 1             12.8
 6 vegetation.6                14.3                 1             14.1
 7 vegetation.7                20.0                 1             19.7
 8 vegetation.8                14.0                 1             13.9
 9 vegetation.9                18.0                 1             17.8
10 vegetation.10               20.0                 1             19.7
# … with 22 more rows
…
3.3 Feature representation

After calculating the total amount of each feature in the planning units (i.e. the features’ abundances), we will now calculate the amount of each feature in the planning units that are covered by protected areas (i.e. feature representation by protected areas). We can complete this task using the eval_feature_representation_summary() function. This function requires (i) a conservation problem object with the planning unit and biodiversity data and also (ii) an object representing a solution to the problem (i.e an object in the same format as the planning unit data with values indicating if the planning units are selected or not).

# create column in planning unit data with binary values (zeros and ones)
# indicating if a planning unit is covered by protected areas or not
pu_data$pa_status <- as.numeric(pu_data$locked_in)

# calculate feature representation by protected areas
repr_data <- eval_feature_representation_summary(p0, pu_data[, "pa_status"])

# print feature representation data
print(repr_data)

# A tibble: 32 × 5
   summary feature       total_amount absolute_held relative_held
   <chr>   <chr>                <dbl>         <dbl>         <dbl>
 1 overall vegetation.1          16.0         0            0     
 2 overall vegetation.2          14.3         0            0     
 3 overall vegetation.3          10.4         0            0     
 4 overall vegetation.4          17.8         0            0     
 5 overall vegetation.5          13.0         0            0     
 6 overall vegetation.6          14.3         0            0     
 7 overall vegetation.7          20.0         0            0     
 8 overall vegetation.8          14.0         0            0     
 9 overall vegetation.9          18.0         0.846        0.0470
10 overall vegetation.10         20.0         0            0     
# … with 22 more rows

Similar to the abundance data before, the repr_data object contains three columns. The feature column contains the name of each feature, the absolute_held column shows the total amount of each feature held in the solution (i.e. the planning units covered by protected areas), and the relative_held column shows the proportion of each feature held in the solution (i.e. the proportion of each feature’s spatial distribution held in protected areas). So the absolute_held is an amount up to but not exceeding the original absolute_abundance of that feature across all planning units (see above) based on those planning units in the solution, and the relative_held is like the percent of planning units in the solution that had this feature present. Since the absolute_held values correspond to the number of grid cells in the veg_data object with overlap with protected areas, let’s convert them to area units (i.e. km2) so we can report them.

# add new column with the areas represented in km^2
repr_data$absolute_held_km2 <-
  (repr_data$absolute_held * prod(res(veg_data))) %>%
  set_units(m^2) %>%
  set_units(km^2)

# print representation data
print(repr_data)

# A tibble: 32 × 6
   summary feature       total_amount absolute_held relative_held
   <chr>   <chr>                <dbl>         <dbl>         <dbl>
 1 overall vegetation.1          16.0         0            0     
 2 overall vegetation.2          14.3         0            0     
 3 overall vegetation.3          10.4         0            0     
 4 overall vegetation.4          17.8         0            0     
 5 overall vegetation.5          13.0         0            0     
 6 overall vegetation.6          14.3         0            0     
 7 overall vegetation.7          20.0         0            0     
 8 overall vegetation.8          14.0         0            0     
 9 overall vegetation.9          18.0         0.846        0.0470
10 overall vegetation.10         20.0         0            0     
# … with 22 more rows, and 1 more variable: absolute_held_km2 [km^2]
…
